{
    "body": {
        "action": "create",
        "actor": {
            "email": "wrlach@gmail.com",
            "id": "1d28271e-72ef-4bf1-842e-8f8296699f89"
        },
        "created_at": "2018-09-19T17:13:31.877477Z",
        "data": {
            "addon_plan_names": [
                "heroku-postgresql:hobby-dev"
            ],
            "app": {
                "id": "c8338946-37bd-4ab2-abf5-c1a4ea5976db",
                "name": "iodide-server"
            },
            "created_at": "2018-09-19T17:13:31Z",
            "current": false,
            "description": "Deploy b3263eb2",
            "id": "2427141a-bfc8-46a9-8764-e2f7d26d26e0",
            "output_stream_url": "https://release-output.heroku.com/streams/c8/c8338946-37bd-4ab2-abf5-c1a4ea5976db/logs/24/2427141a-bfc8-46a9-8764-e2f7d26d26e0.log?AWSAccessKeyId=AKIAJQEIEH544PNXTZNQ&Signature=cwrfyTR4mf%2Bpy7PXStiYdrb6NLw%3D&Expires=1537463611",
            "pstable": {
                "release": {
                    "command": "./bin/pre_deploy",
                    "slug": {
                        "id": "e74ffda3-08fc-466e-a980-95ec24a9beeb"
                    }
                },
                "web": {
                    "command": "gunicorn server.wsgi",
                    "slug": {
                        "id": "e74ffda3-08fc-466e-a980-95ec24a9beeb"
                    }
                }
            },
            "slug": {
                "commit": "b3263eb25247fe9d10ce0834a2566fe6fd618af9",
                "commit_description": "",
                "id": "d9e3e301-fd34-4e3d-b0e1-7d62478ff63b"
            },
            "status": "pending",
            "updated_at": "2018-09-19T17:13:31Z",
            "user": {
                "email": "wrlach@gmail.com",
                "id": "1d28271e-72ef-4bf1-842e-8f8296699f89"
            },
            "version": 176
        },
        "id": "ee83cfee-9e2b-4085-a034-3b3b5f690087",
        "previous_data": {},
        "published_at": "2018-09-19T17:13:32Z",
        "resource": "release",
        "sequence": null,
        "updated_at": "2018-09-19T17:13:31.877483Z",
        "version": "application/vnd.heroku+json; version=3",
        "webhook_metadata": {
            "attempt": {
                "id": "1ffa1e9a-0032-4de8-a3b5-cdfcbb3e476b"
            },
            "delivery": {
                "id": "c7b9651d-cff7-43f3-af16-a168533263ff"
            },
            "event": {
                "id": "ee83cfee-9e2b-4085-a034-3b3b5f690087",
                "include": "api:release"
            },
            "webhook": {
                "id": "626b2e1e-6668-445d-aa26-5afc3f4d509d"
            }
        }
    },
    "headers": {}
}
